Section,Projet,2017,2018-2025,sect
Métropole pour entreprendre,Aménagement du Parc Logistique + Accès sud,5200000,16730000,entreprendre
Métropole pour entreprendre,Requalifications,2304000,15686400,entreprendre
Métropole pour entreprendre,Zone d'activités de Gerzat SUD,192000,1170000,entreprendre
Métropole pour entreprendre,Autres Zones d'activités,1830000,6445000,entreprendre
Métropole pour entreprendre,REQUALIFICATIONS TOUTES ZONES HORS SECTEUR NORD,2700000,74503860,entreprendre
Métropole pour entreprendre,AMENAGEMENT QUARTIER NUMERIQUE,4000000,8700000,entreprendre
"Métropole créative, attractive et rayonnante",Nouvelle médiathèque Croix de Neyrat + studios répétitions,550000,6850000,attractivité
"Métropole créative, attractive et rayonnante",Médiathèque Hôtel Dieu,700000,39000000,attractivité
"Métropole créative, attractive et rayonnante",Espace de travail et de résidences pour artistes plasticiens,800000,0,attractivité
"Métropole créative, attractive et rayonnante",Stade nautique Pierre de Coubertin,2656760,5788460,attractivité
"Métropole créative, attractive et rayonnante",Centre nautique Les Hautes Roches - Réhabilitation,282960,8541840,attractivité
"Métropole créative, attractive et rayonnante",Centre de loisirs verts et sportifs,300000,0,attractivité
"Métropole créative, attractive et rayonnante",Rénovation de la patinoire,450000,186000,attractivité
"Métropole créative, attractive et rayonnante",Artenium - Création d'un mur d'escalade,250000,150000,attractivité
"Métropole créative, attractive et rayonnante",Stade Montpied,200000,69800000,attractivité
"Métropole créative, attractive et rayonnante",Auberge de jeunesse,0,3230000,attractivité
"Métropole créative, attractive et rayonnante",Fonds de concours Campus prometteur,500000,0,attractivité
"Métropole créative, attractive et rayonnante",Fonds de concours Ecocampus,350000,500000,attractivité
"Métropole créative, attractive et rayonnante",Fonds de concours Intervention communautaire en faveur des Universités,200000,800000,attractivité
"Métropole créative, attractive et rayonnante",Fonds de concours Maison de l'innovation (CPER),150000,250000,attractivité
"Métropole créative, attractive et rayonnante",Fonds de concours Learning Center,100000,350000,attractivité
"Métropole créative, attractive et rayonnante","Provision pour projets non identifiés au moment de la préparation budgétaire
Fonds de concours Economie",100000,900000,attractivité
"Métropole créative, attractive et rayonnante",Fonds de concours Scène Nationale,2400000,5600000,attractivité
"Métropole créative, attractive et rayonnante",Fonds de concours Royatonic,0,200000,attractivité
Développement territorial équilibré et solidaire,Bibliothèque numérique d'agglomération / SIGB,500000,0,développement
Développement territorial équilibré et solidaire,Sédentarisation Gens du voyage - Réhabilitation Habitat Indigne,300000,2000000,développement
Développement territorial équilibré et solidaire,Diagnostic actions sur les copropriétés,300000,1100000,développement
Développement territorial équilibré et solidaire,NPRU2,600000,0,développement
Développement territorial équilibré et solidaire,Sédentarisation des gens du voyage - Réhabilitation Habitat Indigne,140000,380000,développement
Développement territorial équilibré et solidaire,Aire d'accueil des gens du voyage de Clermont-Ferrand (Beaulieu),50000,450000,développement
Développement territorial équilibré et solidaire,Aménagement Ernest Cristal,100000,6600000,développement
Développement territorial équilibré et solidaire,Haltes ferroviaires,100000,3750000,développement
Développement territorial équilibré et solidaire,Parcs relais et Ptram ,225000,660000,développement
Développement territorial équilibré et solidaire,ANRU désenclavement des quartiers Nord,210000,0,développement
Développement territorial équilibré et solidaire,Liaison Urbaine Sud Ouest,100000,13776000,développement
Développement territorial équilibré et solidaire,Franchissement Saint Jean,500000,4500000,développement
Développement territorial équilibré et solidaire,Gerzat contournement Ouest,50000,1950000,développement
Développement territorial équilibré et solidaire,Diagnostic en vue de l'élaboration du schéma viaire communautaire,0,0,développement
Développement territorial équilibré et solidaire,Fonds de concours Logement public,6937293,39536099,développement
Développement territorial équilibré et solidaire,Fonds de concours Habitat privé,969500,4579750,développement
Développement territorial équilibré et solidaire,Fonds de concours Rénovation urbaine,194595,3797500,développement
Développement territorial équilibré et solidaire,Fonds de concours Réhabilitation thermique,700000,1820000,développement
Développement territorial équilibré et solidaire,Fonds de concours Logement public - Délégation d'aide à la Pierre,0,3255000,développement
Développement territorial équilibré et solidaire,Fonds de concours Téléalarme - Subvention versée au CG,97000,868000,développement
Métropole durable,Renaturation de l'Artière - Aubière / Beaumont,550000,0,durable
Métropole durable,Renaturation de l'Artière - ZAC des Sauzes,250000,0,durable
Métropole durable,Contrat rivières 2017-2021,30000,2190000,durable
Métropole durable,Renaturation axe Tiretaine Nord,45000,0,durable
Métropole durable,Bassin d'orage sur l'Auzon,400000,400000,durable
Métropole durable,Bassin d'orage sur le Rivassoux,200000,0,durable
Métropole durable,Bassin d'orage de Fontgiève (Clermont-Ferrand),50000,1590000,durable
Métropole durable,Bassin d'orage de Romagnat,70000,800000,durable
Métropole durable,Schéma cyclable communautaire,500000,1500000,durable
Projets communautaires,Bibliothèque Alphonse Daudet à Gerzat - Extension,700000,1576000,commun
Projets communautaires,Bibliothèque Amélie Murat à Chamalières - Extension + travaux de chauffage,1100000,0,commun
Projets communautaires,Construction bibliothèque Pont du Château,50000,2350000,commun
Projets communautaires,Numérisation du fonds documentaire,105000,0,commun
Projets communautaires,Fonds de concours Travaux SIEG,200000,1800000,commun
Projets communautaires,Fonds de concours Cournon - Le Cendre Avenue du midi,76989,0,commun
