[
    {
        "name": "DECHETS",
        "values": [
            75000,
            50000,
            50000,
            50000,
            50000,
            56500
        ]
    },
    {
        "name": "HABITAT \u2013 POLITIQUE DE LA VILLE",
        "values": [
            1072033.8599999999,
            741755.77,
            873581.4199999999,
            660038.92,
            911710.26,
            2454026.47
        ]
    },
    {
        "name": "ACCOMPAGNEMENT DES ENTREPRISES",
        "values": [
            566301.89,
            491887.86,
            770788,
            567455,
            870000,
            985000
        ]
    },
    {
        "name": "developpement-culturel",
        "values": [
            860500,
            842500,
            828100,
            1473500,
            1514000,
            1619000
        ]
    },
    {
        "name": "DEVELOPPEMENT DURABLE",
        "values": [
            73700,
            56300,
            107000,
            154000,
            193945,
            217188
        ]
    },
    {
        "name": "DIVERS",
        "values": [
            799758.04,
            830390.2,
            721708.65,
            1357142,
            1056125,
            1245706.6400000001
        ]
    },
    {
        "name": "ENSEIGNEMENT SUP RECHERCHE INNOVATION",
        "values": [
            0,
            0,
            0,
            913333,
            1383000,
            1385529
        ]
    },
    {
        "name": "SPORTS",
        "values": [
            568387,
            634557,
            772221,
            1137286,
            1164849,
            1449286
        ]
    },
    {
        "name": "TOURISME",
        "values": [
            0,
            50000,
            50000,
            0,
            0,
            1729872.59
        ]
    }
]