[
    {
        "name": "ADUHME",
        "values": [
            30000,
            30000,
            30000,
            45000,
            139945,
            133188
        ]
    },
    {
        "name": "ATMO AUVERGNE RHONE ALPES",
        "values": [
            0,
            0,
            0,
            0,
            0,
            30000
        ]
    },
    {
        "name": "CEN AUVERGNE CONSERVATOIRE ESPAC",
        "values": [
            0,
            0,
            0,
            49000,
            24000,
            24000
        ]
    },
    {
        "name": "CROMS AUVERGNE",
        "values": [
            0,
            0,
            0,
            30000,
            0,
            0
        ]
    },
    {
        "name": "ETUDES ET CHANTIERS SERVICES",
        "values": [
            43700,
            26300,
            47000,
            0,
            0,
            0
        ]
    },
    {
        "name": "IDEAL CONNAISSANCES",
        "values": [
            0,
            0,
            30000,
            0,
            0,
            0
        ]
    },
    {
        "name": "NOE CONSERVATION",
        "values": [
            0,
            0,
            0,
            30000,
            30000,
            30000
        ]
    }
]